module gitlab.com/mgsearch/sizrr-server

go 1.18

require (
	github.com/dgrr/http2 v0.2.12
	github.com/rs/zerolog v1.26.1
	github.com/stretchr/testify v1.7.1
	github.com/valyala/fasthttp v1.33.0
	gitlab.com/mgsearch/sizrr v1.0.0
	go.elastic.co/apm/module/apmfasthttp v1.15.0
	google.golang.org/grpc v1.44.0
	google.golang.org/protobuf v1.27.1
)

require (
	github.com/andybalholm/brotli v1.0.4 // indirect
	github.com/armon/go-radix v1.0.0 // indirect
	github.com/davecgh/go-spew v1.1.0 // indirect
	github.com/elastic/go-licenser v0.3.1 // indirect
	github.com/elastic/go-sysinfo v1.1.1 // indirect
	github.com/elastic/go-windows v1.0.0 // indirect
	github.com/golang/protobuf v1.5.0 // indirect
	github.com/jcchavezs/porto v0.1.0 // indirect
	github.com/joeshaw/multierror v0.0.0-20140124173710-69b34d4ec901 // indirect
	github.com/klauspost/compress v1.14.1 // indirect
	github.com/pkg/errors v0.9.1 // indirect
	github.com/pmezard/go-difflib v1.0.0 // indirect
	github.com/prometheus/procfs v0.0.0-20190425082905-87a4384529e0 // indirect
	github.com/santhosh-tekuri/jsonschema v1.2.4 // indirect
	github.com/valyala/bytebufferpool v1.0.0 // indirect
	github.com/valyala/fastrand v1.0.0 // indirect
	go.elastic.co/apm v1.15.0 // indirect
	go.elastic.co/apm/module/apmhttp v1.15.0 // indirect
	go.elastic.co/fastjson v1.1.0 // indirect
	golang.org/x/lint v0.0.0-20201208152925-83fdc39ff7b5 // indirect
	golang.org/x/mod v0.4.2 // indirect
	golang.org/x/net v0.0.0-20220111093109-d55c255bac03 // indirect
	golang.org/x/sys v0.0.0-20220111092808-5a964db01320 // indirect
	golang.org/x/text v0.3.7 // indirect
	golang.org/x/tools v0.1.7 // indirect
	golang.org/x/xerrors v0.0.0-20200804184101-5ec99f83aff1 // indirect
	google.golang.org/genproto v0.0.0-20200526211855-cb27e3aa2013 // indirect
	gopkg.in/yaml.v3 v3.0.0-20200313102051-9f266ea9e77c // indirect
	howett.net/plist v0.0.0-20181124034731-591f970eefbb // indirect
)
